{
  "project_info": {
    "project_number": "714142921859",
    "firebase_url": "https://hacatonapp-3ca68.firebaseio.com",
    "project_id": "hacatonapp-3ca68",
    "storage_bucket": "hacatonapp-3ca68.appspot.com"
  },
  "client": [
    {
      "client_info": {
        "mobilesdk_app_id": "1:714142921859:android:2da8946764da0f29",
        "android_client_info": {
          "package_name": "com.dbn.hacatonapp"
        }
      },
      "oauth_client": [
        {
          "client_id": "714142921859-ljjaggk8nalr3t2d97166o28kitkocfb.apps.googleusercontent.com",
          "client_type": 1,
          "android_info": {
            "package_name": "com.dbn.hacatonapp",
            "certificate_hash": "6b96b0c2d08edcdfd5b3c12c661638588368dfbf"
          }
        },
        {
          "client_id": "714142921859-74p7m59nlqm8d5iu57vdrkkj04mff478.apps.googleusercontent.com",
          "client_type": 3
        }
      ],
      "api_key": [
        {
          "current_key": "AIzaSyCi_olhJD07DgJoFLXR1U3ChX2f_7vrktU"
        }
      ],
      "services": {
        "appinvite_service": {
          "other_platform_oauth_client": [
            {
              "client_id": "714142921859-74p7m59nlqm8d5iu57vdrkkj04mff478.apps.googleusercontent.com",
              "client_type": 3
            }
          ]
        }
      }
    }
  ],
  "configuration_version": "1"
}